/* XPM */
static char *XPM_icon[] = {
"24 16 17 1 12 8",
"  c None",
"s c #0b0b0f",
"S c #7970a9",
"r c #ff5555",
"R c #ff6e6e",
"g c #8aff80",
"G c #a2ff99",
"y c #ffff80",
"Y c #ffff99",
"b c #9580ff",
"B c #aa99ff",
"m c #ff80bf",
"M c #ff99cc",
"c c #80ffea",
"C c #99ffee",
"w c #f8f8f2",
"W c #454158",
"                 gg     ",
"        ww        gg    ",
"       w w    gg  gg    ",
"      w  w    gg   gg   ",
"     w   w     gg  gg   ",
" wwww    w gg  gg  gg   ",
" w       w  gg  gg  gg  ",
" w       w  gg  gg  gg  ",
" w       w  gg  gg  gg  ",
" w       w  gg  gg  gg  ",
" wwww    w gg  gg  gg   ",
"     w   w     gg  gg   ",
"      w  w    gg   gg   ",
"       w w    gg  gg    ",
"        ww        gg    ",
"                 gg     ",
};
